%YAML 1.1
%TAG !u! tag:unity3d.com,2011:
--- !u!1001 &7097762409302988888
PrefabInstance:
  m_ObjectHideFlags: 0
  serializedVersion: 2
  m_Modification:
    m_TransformParent: {fileID: 0}
    m_Modifications:
    - target: {fileID: 3805434084810646096, guid: c924904a4c8d8964d9ca9ce2a15e44b4,
        type: 3}
      propertyPath: m_Materials.Array.data[0]
      value: 
      objectReference: {fileID: 2100000, guid: 4c2859bff4065554eb39f13f8119206c, type: 2}
    - target: {fileID: 5576096239097538686, guid: c924904a4c8d8964d9ca9ce2a15e44b4,
        type: 3}
      propertyPath: m_Name
      value: BodyPart2
      objectReference: {fileID: 0}
    - target: {fileID: 5785809476258950655, guid: c924904a4c8d8964d9ca9ce2a15e44b4,
        type: 3}
      propertyPath: m_LocalPosition.x
      value: 0
      objectReference: {fileID: 0}
    - target: {fileID: 5785809476258950655, guid: c924904a4c8d8964d9ca9ce2a15e44b4,
        type: 3}
      propertyPath: m_LocalPosition.y
      value: 0
      objectReference: {fileID: 0}
    - target: {fileID: 5785809476258950655, guid: c924904a4c8d8964d9ca9ce2a15e44b4,
        type: 3}
      propertyPath: m_LocalPosition.z
      value: 0
      objectReference: {fileID: 0}
    - target: {fileID: 5785809476258950655, guid: c924904a4c8d8964d9ca9ce2a15e44b4,
        type: 3}
      propertyPath: m_LocalRotation.x
      value: 0
      objectReference: {fileID: 0}
    - target: {fileID: 5785809476258950655, guid: c924904a4c8d8964d9ca9ce2a15e44b4,
        type: 3}
      propertyPath: m_LocalRotation.y
      value: 0
      objectReference: {fileID: 0}
    - target: {fileID: 5785809476258950655, guid: c924904a4c8d8964d9ca9ce2a15e44b4,
        type: 3}
      propertyPath: m_LocalRotation.z
      value: 0
      objectReference: {fileID: 0}
    - target: {fileID: 5785809476258950655, guid: c924904a4c8d8964d9ca9ce2a15e44b4,
        type: 3}
      propertyPath: m_LocalRotation.w
      value: 1
      objectReference: {fileID: 0}
    - target: {fileID: 5785809476258950655, guid: c924904a4c8d8964d9ca9ce2a15e44b4,
        type: 3}
      propertyPath: m_RootOrder
      value: 0
      objectReference: {fileID: 0}
    - target: {fileID: 5785809476258950655, guid: c924904a4c8d8964d9ca9ce2a15e44b4,
        type: 3}
      propertyPath: m_LocalEulerAnglesHint.x
      value: 0
      objectReference: {fileID: 0}
    - target: {fileID: 5785809476258950655, guid: c924904a4c8d8964d9ca9ce2a15e44b4,
        type: 3}
      propertyPath: m_LocalEulerAnglesHint.y
      value: 0
      objectReference: {fileID: 0}
    - target: {fileID: 5785809476258950655, guid: c924904a4c8d8964d9ca9ce2a15e44b4,
        type: 3}
      propertyPath: m_LocalEulerAnglesHint.z
      value: 0
      objectReference: {fileID: 0}
    m_RemovedComponents: []
  m_SourcePrefab: {fileID: 100100000, guid: c924904a4c8d8964d9ca9ce2a15e44b4, type: 3}
